{"data":[{"vehicle_id":39848171,"terminal_id":349175371,"terminal_serial":"EG003374","registration":"46-PG-05","default_timezone":null,"monthly_mileage_limit":0,"tolling_tag_id":null,"vehicle_name":null,"client_vehicle_description":null,"client_vehicle_description2":null,"client_vehicle_description3":null,"licence_code":null,"licence_issued_date":null,"licence_expiry_date":null,"max_speed":130,"manufacturer":"Volkswagen","default_driver":null,"home_geofence":null,"model":"Polo","model_year":2013,"colour":"Branco","chassis_number":"WVWZZZ6RZEY211687","is_under_maintenance":false,"vehicle_type_id":null,"vehicle_type":null,"has_camera":false,"terminal_in_repair":false,"sensors":{"fuel_canbus_consumed":false,"fuel_canbus_level":true,"fuel_analog_level":false,"electric_battery":false,"electric_charging":false},"custom_fields":null},{"vehicle_id":39848195,"terminal_id":348177071,"terminal_serial":"EG001045","registration":"91-66-ZR","default_timezone":null,"monthly_mileage_limit":0,"tolling_tag_id":null,"vehicle_name":null,"client_vehicle_description":null,"client_vehicle_description2":null,"client_vehicle_description3":null,"licence_code":null,"licence_issued_date":null,"licence_expiry_date":null,"max_speed":130,"manufacturer":"Volkswagen","default_driver":null,"home_geofence":null,"model":"Passat","model_year":2005,"colour":"Cinzento","chassis_number":"WVWZZZ3CZ6P000692","is_under_maintenance":false,"vehicle_type_id":null,"vehicle_type":null,"has_camera":false,"terminal_in_repair":false,"sensors":{"fuel_canbus_consumed":false,"fuel_canbus_level":false,"fuel_analog_level":false,"electric_battery":false,"electric_charging":false},"custom_fields":null},{"vehicle_id":39848203,"terminal_id":348089564,"terminal_serial":"EG000712","registration":"AU-12-EX","default_timezone":null,"monthly_mileage_limit":0,"tolling_tag_id":null,"vehicle_name":"AU-12-EX","client_vehicle_description":null,"client_vehicle_description2":null,"client_vehicle_description3":null,"licence_code":null,"licence_issued_date":null,"licence_expiry_date":null,"max_speed":130,"manufacturer":"Opel","default_driver":null,"home_geofence":"","model":"Vivaro-e","model_year":2022,"colour":"Branco","chassis_number":"VXEVZZKXZNZ068312","is_under_maintenance":false,"vehicle_type_id":0,"vehicle_type":"Default","has_camera":false,"terminal_in_repair":false,"sensors":{"fuel_canbus_consumed":false,"fuel_canbus_level":true,"fuel_analog_level":false,"electric_battery":false,"electric_charging":false},"custom_fields":null},{"vehicle_id":39848207,"terminal_id":436732617,"terminal_serial":"EK054815","registration":"BC-57-SJ","default_timezone":null,"monthly_mileage_limit":0,"tolling_tag_id":null,"vehicle_name":null,"client_vehicle_description":null,"client_vehicle_description2":null,"client_vehicle_description3":null,"licence_code":null,"licence_issued_date":null,"licence_expiry_date":null,"max_speed":130,"manufacturer":"Ford","default_driver":null,"home_geofence":null,"model":"Transit Custom","model_year":2023,"colour":"Branco","chassis_number":"WF01XXTTG1PL58323","is_under_maintenance":false,"vehicle_type_id":null,"vehicle_type":null,"has_camera":false,"terminal_in_repair":false,"sensors":{"fuel_canbus_consumed":false,"fuel_canbus_level":true,"fuel_analog_level":false,"electric_battery":false,"electric_charging":false},"custom_fields":null},{"vehicle_id":39848211,"terminal_id":436659193,"terminal_serial":"EK051173","registration":"BC-82-TN","default_timezone":null,"monthly_mileage_limit":0,"tolling_tag_id":null,"vehicle_name":null,"client_vehicle_description":null,"client_vehicle_description2":null,"client_vehicle_description3":null,"licence_code":null,"licence_issued_date":null,"licence_expiry_date":null,"max_speed":130,"manufacturer":"Ford","default_driver":null,"home_geofence":null,"model":"Transit Custom","model_year":2023,"colour":"Preto","chassis_number":"WF01XXTTG1PL59597","is_under_maintenance":false,"vehicle_type_id":null,"vehicle_type":null,"has_camera":false,"terminal_in_repair":false,"sensors":{"fuel_canbus_consumed":false,"fuel_canbus_level":true,"fuel_analog_level":false,"electric_battery":false,"electric_charging":false},"custom_fields":null},{"vehicle_id":39848215,"terminal_id":348390260,"terminal_serial":"EG001976","registration":"BE-66-JH","default_timezone":null,"monthly_mileage_limit":0,"tolling_tag_id":null,"vehicle_name":null,"client_vehicle_description":null,"client_vehicle_description2":null,"client_vehicle_description3":null,"licence_code":null,"licence_issued_date":null,"licence_expiry_date":null,"max_speed":130,"manufacturer":"Dacia","default_driver":null,"home_geofence":null,"model":"Spring Eletric","model_year":2023,"colour":"Cinzento","chassis_number":"UU1DBG007PU119122","is_under_maintenance":false,"vehicle_type_id":null,"vehicle_type":null,"has_camera":false,"terminal_in_repair":false,"sensors":{"fuel_canbus_consumed":false,"fuel_canbus_level":true,"fuel_analog_level":false,"electric_battery":false,"electric_charging":false},"custom_fields":null},{"vehicle_id":39848219,"terminal_id":349150834,"terminal_serial":"EG002156","registration":"BE-88-JH","default_timezone":null,"monthly_mileage_limit":0,"tolling_tag_id":null,"vehicle_name":null,"client_vehicle_description":null,"client_vehicle_description2":null,"client_vehicle_description3":null,"licence_code":null,"licence_issued_date":null,"licence_expiry_date":null,"max_speed":130,"manufacturer":"Dacia","default_driver":null,"home_geofence":null,"model":"Spring Eletric","model_year":2023,"colour":"Cinzento","chassis_number":"UU1DBG001PU114448","is_under_maintenance":false,"vehicle_type_id":null,"vehicle_type":null,"has_camera":false,"terminal_in_repair":false,"sensors":{"fuel_canbus_consumed":false,"fuel_canbus_level":true,"fuel_analog_level":false,"electric_battery":false,"electric_charging":false},"custom_fields":null},{"vehicle_id":39848223,"terminal_id":349173726,"terminal_serial":"EG003162","registration":"BE-08-JH","default_timezone":null,"monthly_mileage_limit":0,"tolling_tag_id":null,"vehicle_name":null,"client_vehicle_description":null,"client_vehicle_description2":null,"client_vehicle_description3":null,"licence_code":null,"licence_issued_date":null,"licence_expiry_date":null,"max_speed":130,"manufacturer":"Dacia","default_driver":null,"home_geofence":null,"model":"Spring Eletric","model_year":2023,"colour":"Branco","chassis_number":"UU1DBG008NU110197","is_under_maintenance":false,"vehicle_type_id":null,"vehicle_type":null,"has_camera":false,"terminal_in_repair":false,"sensors":{"fuel_canbus_consumed":false,"fuel_canbus_level":true,"fuel_analog_level":false,"electric_battery":false,"electric_charging":false},"custom_fields":null},{"vehicle_id":39848227,"terminal_id":348227401,"terminal_serial":"EG000831","registration":"BE-23-JH","default_timezone":null,"monthly_mileage_limit":0,"tolling_tag_id":null,"vehicle_name":null,"client_vehicle_description":null,"client_vehicle_description2":null,"client_vehicle_description3":null,"licence_code":null,"licence_issued_date":null,"licence_expiry_date":null,"max_speed":130,"manufacturer":"Dacia","default_driver":null,"home_geofence":null,"model":"Spring Eletric","model_year":2023,"colour":"Verde","chassis_number":"UU1DBG006NU104527","is_under_maintenance":false,"vehicle_type_id":null,"vehicle_type":null,"has_camera":false,"terminal_in_repair":false,"sensors":{"fuel_canbus_consumed":false,"fuel_canbus_level":true,"fuel_analog_level":false,"electric_battery":false,"electric_charging":false},"custom_fields":null},{"vehicle_id":39848231,"terminal_id":353194468,"terminal_serial":"EG011214","registration":"AO-63-DL","default_timezone":null,"monthly_mileage_limit":0,"tolling_tag_id":null,"vehicle_name":null,"client_vehicle_description":null,"client_vehicle_description2":null,"client_vehicle_description3":null,"licence_code":null,"licence_issued_date":null,"licence_expiry_date":null,"max_speed":130,"manufacturer":"Opel","default_driver":null,"home_geofence":null,"model":"Movano Van","model_year":2022,"colour":"Branco","chassis_number":"VXEYDBPAU12U13503","is_under_maintenance":false,"vehicle_type_id":null,"vehicle_type":null,"has_camera":false,"terminal_in_repair":false,"sensors":{"fuel_canbus_consumed":false,"fuel_canbus_level":false,"fuel_analog_level":true,"electric_battery":false,"electric_charging":false},"custom_fields":null}],"meta":{"from":1,"to":10,"current_page":1,"per_page":10,"last_page":6,"total":57}}
